Assignment Four
…
Arbeidsledighetsprosenten blir beregnet som: arbl% = antall arb. ledige/arbeidsstyrken. Arbeidsstyrken er her dem man anser egnet for arbeid dvs. ufretrygdete etc. er trukket ut. Arbeidsstyren i en aldesrkategori er derfor langt mindre enn befolkningen i den tilsvarende alderskategorien.

Dessverre kjenne vi ikke arbeidsstyrken, men vi kan beregne den vha.: arbeidsstyrken = antall arb. ledige/arb. ledighetsprosent.

arblos <- arblos %>% 
    mutate(
        wf_K = (al_Kvinner/alp_Kvinner)*100,
        wf_M = (al_Menn/alp_Menn)*100,
        wf_KM = wf_K + wf_M
    )

arblos

## # A tibble: 77,330 x 14
##    knr   knavn   aar   mnd al_Menn al_Kvinner alp_Menn alp_Kvinner alp_15_74
##    <chr> <chr> <dbl> <dbl>   <dbl>      <dbl>    <dbl>       <dbl>     <dbl>
##  1 0101  Hald~  1999     1     283        248      3.9         4.1       4  
##  2 0101  Hald~  1999     2     291        236      4           3.9       4  
##  3 0101  Hald~  1999     3     290        230      4           3.8       3.9
##  4 0101  Hald~  1999     4     244        207      3.4         3.4       3.4
##  5 0101  Hald~  1999     5     210        179      2.9         3         2.9
##  6 0101  Hald~  1999     6     227        203      3.2         3.4       3.2
##  7 0101  Hald~  1999     7     265        273      3.7         4.5       4.1
##  8 0101  Hald~  1999     8     288        278      4           4.6       4.3
##  9 0101  Hald~  1999     9     230        201      3.2         3.3       3.3
## 10 0101  Hald~  1999    10     225        207      3.1         3.4       3.3
## # ... with 77,320 more rows, and 5 more variables: alp_15_29 <dbl>,
## #   alp_30_74 <dbl>, wf_K <dbl>, wf_M <dbl>, wf_KM <dbl>
…
## `summarise()` regrouping output by 'aar', 'mnd' (override with `.groups` argument)

Vi skal n ha en tibble wf_f som ser slik ut:

print(wf_f, n = 5)

## # A tibble: 3,515 x 7
## # Groups:   aar, mnd [185]
##     aar   mnd r         fylke  wf_K_f  wf_M_f wf_KM_f
##   <dbl> <dbl> <date>     <chr>   <dbl>   <dbl>   <dbl>
## 1  1999     1 1999-01-01 01     57671.  67408. 125079.
## 2  1999     1 1999-01-01 02    120670. 133018. 253688.
## 3  1999     1 1999-01-01 03    133500  147097. 280597.
## 4  1999     1 1999-01-01 04     42237.  49356.  91593.
## 5  1999     1 1999-01-01 05     41178.  47990.  89168.
## # ... with 3,510 more rows

Lag ogs en ny tibble bef_f fra bef som inneholder befolkningen i hvert fylke hvert r.

## `summarise()` regrouping output by 'aar' (override with `.groups` argument)

bef_f

## # A tibble: 304 x 5
## # Groups:   aar [16]
##      aar fylke bef_K_f bef_M_f bef_KM_f
##    <dbl> <chr>   <dbl>   <dbl>    <dbl>
##  1  1999 01     125278  120740   246018
##  2  1999 02     232564  228000   460564
##  3  1999 03     260639  242228   502867
##  4  1999 04      94239   92082   186321
##  5  1999 05      88898   87363   176261
##  6  1999 06     119096  115922   235018
##  7  1999 07      73772   70920   144692
##  8  1999 08      83559   80964   164523
##  9  1999 09      50994   50493   101487
## 10  1999 10      77789   76209   153998
## # ... with 294 more rows

Lag til slutt tibble-en wf_f_bef som innholde arbeidsstyrke (wf-f) og befolkning (bef-f) p fylkesniv for hvert r.

## Joining, by = c("aar", "fylke")

Da skal wf_f_bef se slik ut:

print(arrange(wf_f_bef, fylke, aar, mnd))

## # A tibble: 3,515 x 10
## # Groups:   aar, mnd [185]
##      aar   mnd r         fylke wf_K_f wf_M_f wf_KM_f bef_K_f bef_M_f bef_KM_f
##    <dbl> <dbl> <date>     <chr>  <dbl>  <dbl>   <dbl>   <dbl>   <dbl>    <dbl>
##  1  1999     1 1999-01-01 01    57671. 67408. 125079.  125278  120740   246018
##  2  1999     2 1999-02-01 01    57693. 67526. 125220.  125278  120740   246018
##  3  1999     3 1999-03-01 01    57108. 67551. 124659.  125278  120740   246018
##  4  1999     4 1999-04-01 01    57526. 67355. 124881.  125278  120740   246018
##  5  1999     5 1999-05-01 01    57285. 67189. 124474.  125278  120740   246018
##  6  1999     6 1999-06-01 01    57529. 66792. 124321.  125278  120740   246018
##  7  1999     7 1999-07-01 01    57393. 67690. 125083.  125278  120740   246018
##  8  1999     8 1999-08-01 01    57531. 66998. 124529.  125278  120740   246018
##  9  1999     9 1999-09-01 01    57264. 67609. 124873.  125278  120740   246018
## 10  1999    10 1999-10-01 01    57702. 66907. 124610.  125278  120740   246018
## # ... with 3,505 more rows
…
nest() arblos

Da skal vi jobbe direkte med arbeidslshet og lage linere modeller for hver av de 418 kommunene. Modellen vi skal lage er p ingen mte perfekt. Vi er interessert i selve teknikken med  organisere dataene og kjre modeller p mange subsett av dataene (her for hver kommune).

Vi vil se p en modell der vi forklarer arbeidsstyrken i en kommune vha. ungdomsledighet og ledighet blant litt eldre arbeidstakere (30-74 r). En hypotese er at vi vil se en negativ sammenheng mellom ungdomsledighet og arbeidsstyrken. De unge flytter hvis det ikke er jobb.

Vi starter med  gruppere p kommune og nest-e dataene.

arblos_by_knr <- arblos %>% 
    group_by(knr, knavn) %>% 
    nest()

print(arblos_by_knr, n = 4)

## # A tibble: 418 x 3
## # Groups:   knr, knavn [418]
##   knr   knavn       data               
##   <chr> <chr>       <list>             
## 1 0101  Halden      <tibble [185 x 12]>
## 2 0104  Moss        <tibble [185 x 12]>
## 3 0105  Sarpsborg   <tibble [185 x 12]>
## 4 0106  Fredrikstad <tibble [185 x 12]>
## # ... with 414 more rows

arblos_by_knr$data[[1]]

## # A tibble: 185 x 12
##      aar   mnd al_Menn al_Kvinner alp_Menn alp_Kvinner alp_15_74 alp_15_29
##    <dbl> <dbl>   <dbl>      <dbl>    <dbl>       <dbl>     <dbl>     <dbl>
##  1  1999     1     283        248      3.9         4.1       4         6.3
##  2  1999     2     291        236      4           3.9       4         6.1
##  3  1999     3     290        230      4           3.8       3.9       5.9
##  4  1999     4     244        207      3.4         3.4       3.4       4.9
##  5  1999     5     210        179      2.9         3         2.9       3.8
##  6  1999     6     227        203      3.2         3.4       3.2       4.2
##  7  1999     7     265        273      3.7         4.5       4.1       5.2
##  8  1999     8     288        278      4           4.6       4.3       6.6
##  9  1999     9     230        201      3.2         3.3       3.3       4.8
## 10  1999    10     225        207      3.1         3.4       3.3       4.8
## # ... with 175 more rows, and 4 more variables: alp_30_74 <dbl>, wf_K <dbl>,
## #   wf_M <dbl>, wf_KM <dbl>

Vi har n en tibble med data for hver kommune inne i tibble-en arblos_by_knr.

Skriv en funksjon som kjrer den linere modellen wf_KM ~ alp_15_29 + alp_30_74 p en input dataframe a_df. Kall funksjonen mod1 (i magel p noe bedre navn).

KJre s modellen vha. funksjonen mod1 p data i arblos_by_knr, og lag en list-column i arblos_by_knr som inneholder modellen. Kjr ogs tidy og glance fra broom p modellene for  f hhv. koeffisienter og ulike summary av modellen. Lagre resultatene i hhv. mod1_arblos, mod1_arblos_coef og mod1_arblos_sum (i siste er sum forkortelse for summary)

arblos_by_knr skal n se ut slik:

arblos_by_knr

## # A tibble: 418 x 6
## # Groups:   knr, knavn [418]
##    knr   knavn      data           mod1_arblos mod1_arblos_coef mod1_arblos_sum 
##    <chr> <chr>      <list>         <list>      <list>           <list>          
##  1 0101  Halden     <tibble [185 ~ <lm>        <tibble [3 x 5]> <tibble [1 x 12~
##  2 0104  Moss       <tibble [185 ~ <lm>        <tibble [3 x 5]> <tibble [1 x 12~
##  3 0105  Sarpsborg  <tibble [185 ~ <lm>        <tibble [3 x 5]> <tibble [1 x 12~
##  4 0106  Fredrikst~ <tibble [185 ~ <lm>        <tibble [3 x 5]> <tibble [1 x 12~
##  5 0111  Hvaler     <tibble [185 ~ <lm>        <tibble [3 x 5]> <tibble [1 x 12~
##  6 0118  Aremark    <tibble [185 ~ <lm>        <tibble [3 x 5]> <tibble [1 x 12~
##  7 0119  Marker     <tibble [185 ~ <lm>        <tibble [3 x 5]> <tibble [1 x 12~
##  8 0121  Rmskog    <tibble [185 ~ <lm>        <tibble [3 x 5]> <tibble [1 x 12~
##  9 0122  Trgstad   <tibble [185 ~ <lm>        <tibble [3 x 5]> <tibble [1 x 12~
## 10 0123  Spydeberg  <tibble [185 ~ <lm>        <tibble [3 x 5]> <tibble [1 x 12~
## # ... with 408 more rows
…
Pakker ut og henter model karakteristika

Bruk s unnest() til  pakke ut mod1_arblos_coef og mod1_arblos_coef (husk at de to m st i en c() og ha anfrselstegn). Plukk ut variablene knr, knavn, term, estimate, std.error, p.value9, adj.r.squared og legg resultatet i mod_arbl_re.

## New names:
## * statistic -> statistic...8
## * p.value -> p.value...9
## * statistic -> statistic...13
## * p.value -> p.value...14

Du skal da ha noe som ser slik ut:

print(mod_arbl_re, n = 10)

## # A tibble: 1,254 x 7
## # Groups:   knr, knavn [418]
##    knr   knavn       term        estimate std.error p.value...9 adj.r.squared
##    <chr> <chr>       <chr>          <dbl>     <dbl>       <dbl>         <dbl>
##  1 0101  Halden      (Intercept)  14288.      153.    1.23e-155        0.110 
##  2 0101  Halden      alp_15_29      228.       58.0   1.19e-  4        0.110 
##  3 0101  Halden      alp_30_74     -516.      105.    1.97e-  6        0.110 
##  4 0104  Moss        (Intercept)  14030.      252.    3.65e-116        0.0102
##  5 0104  Moss        alp_15_29       47.0      97.2   6.30e-  1        0.0102
##  6 0104  Moss        alp_30_74       66.3     206.    7.48e-  1        0.0102
##  7 0105  Sarpsborg   (Intercept)  25250.      435.    2.02e-119        0.0138
##  8 0105  Sarpsborg   alp_15_29      273.      164.    9.72e-  2        0.0138
##  9 0105  Sarpsborg   alp_30_74     -416.      381.    2.77e-  1        0.0138
## 10 0106  Fredrikstad (Intercept)  36302.      394.    1.15e-154        0.550 
## # ... with 1,244 more rows

Sl sammen kom_str og mod_arbl_re vha. left_join(). Kall resultatet for kom_str_mod.

kom_str_mod <- mod_arbl_re %>% 
    left_join(kom_str, by = c("knr", "knavn")) 

Da skal du ha noe som ser slik ut:

print(kom_str_mod, n = 5)

## # A tibble: 1,254 x 9
## # Groups:   knr, knavn [418]
##   knr   knavn  term    estimate std.error p.value...9 adj.r.squared bef_KM k_str
##   <chr> <chr>  <chr>      <dbl>     <dbl>       <dbl>         <dbl>  <dbl> <chr>
## 1 0101  Halden (Inter~  14288.      153.    1.23e-155        0.110   30132 Stor 
## 2 0101  Halden alp_15~    228.       58.0   1.19e-  4        0.110   30132 Stor 
## 3 0101  Halden alp_30~   -516.      105.    1.97e-  6        0.110   30132 Stor 
## 4 0104  Moss   (Inter~  14030.      252.    3.65e-116        0.0102  31308 Stor 
## 5 0104  Moss   alp_15~     47.0      97.2   6.30e-  1        0.0102  31308 Stor 
## # ... with 1,249 more rows
…
